Tutorial 5 • bios1
…
Exercise 2

Create a diabetes dataset that only includes Outcome, Insulin,
Glucose, Age, and BMI and rename Glucose to “blood_glucose”

Solution:

diabetes2 %>%
  rename(blood_glucose = Glucose) %>%
  select(c(Outcome, Insulin, blood_glucose, Age, BMI))

## # A tibble: 768 × 5
##    Outcome     Insulin blood_glucose   Age   BMI
##    <fct>         <dbl>         <dbl> <dbl> <dbl>
##  1 diabetes          0           148    50  33.6
##  2 no diabetes       0            85    31  26.6
##  3 diabetes          0           183    32  23.3
##  4 no diabetes      94            89    21  28.1
##  5 diabetes        168           137    33  43.1
##  6 no diabetes       0           116    30  25.6
##  7 diabetes         88            78    26  31  
##  8 no diabetes       0           115    29  35.3
##  9 diabetes        543           197    53  30.5
## 10 diabetes          0           125    54   0  
## # ℹ 758 more rows
…
